___lwdiv@dividend 78 0 COMMON 1
___lldiv@counter 7D 0 COMMON 1
sprintf@fval BE 0 BANK1 1
___awdiv@counter 20 0 BANK0 1
sprintf@f A0 0 BANK1 1
___lwdiv@counter 7D 0 COMMON 1
__size_of__Umul8_16 0 0 ABS 0
LCD_Init@display 78 0 COMMON 1
___fldiv@rem 4B 0 BANK0 1
__S0 2000 0 ABS 0
__S1 1A4 0 ABS 0
__S2 0 0 ABS 0
__S3 0 0 ABS 0
__Hintentry 0 0 CODE 0
__Lintentry 0 0 CODE 0
_lcd 19F 0 BANK3 1
__end_of___awdiv 86E 0 CODE 0
___fladd@signs 62 0 BANK0 1
__end_of___fleq 1BDB 0 CODE 0
___flneg@f1 70 0 COMMON 1
__end_of_LCD_Init 940 0 CODE 0
__end_of_LCD_Out 1190 0 CODE 0
_main 8D 0 CODE 0
___sp 0 0 STACK 2
btemp 7E 0 ABS 0
?___fladd 52 0 BANK0 1
start 0 0 CODE 0
___fltol@f1 51 0 BANK0 1
main@dato_adc EA 0 BANK1 1
_TRISA 85 0 ABS 0
_TRISB 86 0 ABS 0
_TRISC 87 0 ABS 0
_PORTA 5 0 ABS 0
__size_of___fleq 0 0 ABS 0
reset_vec 0 0 CODE 0
_TRISD 88 0 ABS 0
_PORTB 6 0 ABS 0
__end_of___flmul 1000 0 CODE 0
_TRISE 89 0 ABS 0
_PORTC 7 0 ABS 0
_ANSEL 188 0 ABS 0
_PORTD 8 0 ABS 0
_PORTE 9 0 ABS 0
wtemp0 7E 0 ABS 0
?___flneg 70 0 COMMON 1
scale@scl 50 0 BANK0 1
__Hconfig 2008 0 CONFIG 4
__Lconfig 0 0 CONFIG 4
__size_of_Inicializar_ADC 0 0 ABS 0
__powers_ 1810 0 STRING 0
?___llmod 70 0 COMMON 1
?___awmod 70 0 COMMON 1
__end_of__stringtab 1810 0 STRING 0
?___lwmod 70 0 COMMON 1
_LCD_putc 1D49 0 CODE 0
?___flsub 66 0 BANK0 1
_scale 940 0 CODE 0
__Hram 0 0 ABS 0
__Lram 0 0 ABS 0
___flge@ff1 70 0 COMMON 1
?_sprintf A0 0 BANK1 1
_scale$842 4C 0 BANK0 1
___xxtofl 1E89 0 CODE 0
_LCD_Init 86E 0 CODE 0
___fleq@ff1 70 0 COMMON 1
__Hfunctab 0 0 ENTRY 0
__Lfunctab 0 0 ENTRY 0
___flge@ff2 74 0 COMMON 1
_ADCON0 1F 0 ABS 0
__tdiv_to_l_@quot 20 0 BANK0 1
_ADCON1 9F 0 ABS 0
LCD_putrs@i 20 0 BANK0 1
?___fltol 51 0 BANK0 1
__Hcommon 0 0 ABS 0
__Lcommon 0 0 ABS 0
__Heeprom_data 0 0 EEDATA 3
__Leeprom_data 0 0 EEDATA 3
?___flmul 24 0 BANK0 1
___fleq@ff2 74 0 COMMON 1
sprintf@ap AE 0 BANK1 1
___int_sp 0 0 STACK 2
?___fldiv 3E 0 BANK0 1
?___lldiv 70 0 COMMON 1
?___awdiv 77 0 COMMON 1
main@F1477 19A 0 BANK3 1
?___lwdiv 76 0 COMMON 1
_ADRESH 1E 0 ABS 0
__Habs1 0 0 ABS 0
__Labs1 0 0 ABS 0
_ADRESL 9E 0 ABS 0
__Hsfr0 0 0 ABS 0
__end_of__powers_ 1844 0 STRING 0
__Lsfr0 0 0 ABS 0
__Hsfr1 0 0 ABS 0
__Lsfr1 0 0 ABS 0
__Hsfr2 0 0 ABS 0
__Lsfr2 0 0 ABS 0
__Hsfr3 0 0 ABS 0
__Lsfr3 0 0 ABS 0
__size_of_LCD_Write 0 0 ABS 0
?__tdiv_to_l_ 70 0 COMMON 1
__Umul8_16@multiplier 78 0 COMMON 1
__npowers_ 1844 0 STRING 0
__end_of___fltol 8D 0 CODE 0
___stackhi 0 0 ABS 0
__end_of___flsub 1A49 0 CODE 0
__size_of___fldiv 0 0 ABS 0
__div_to_l_@f1 70 0 COMMON 1
_Inicializar_ADC 1000 0 CODE 0
_LCD_Write 1C88 0 CODE 0
__end_of_dpowers 18A0 0 STRING 0
__end_of_scale C9F 0 CODE 0
__end_of___flge 1E89 0 CODE 0
__end_of___awmod 1C88 0 CODE 0
init_fetch0 1A12 0 CODE 0
__Hcode 0 0 ABS 0
__Lcode 0 0 ABS 0
_fround$840 4D 0 BANK0 1
___flge 1DE7 0 CODE 0
?_scale 3E 0 BANK0 1
sprintf@sp BB 0 BANK1 1
_fround 136D 0 CODE 0
___fldiv@new_exp 50 0 BANK0 1
__HcstackBANK0 0 0 ABS 0
__LcstackBANK0 0 0 ABS 0
__pcstackBANK0 20 0 BANK0 1
___fleq 1B8D 0 CODE 0
___awmod@sign 76 0 COMMON 1
_fround$841 49 0 BANK0 1
__Hinit 0 0 CODE 0
__Linit 0 0 CODE 0
___wmul 1A49 0 CODE 0
__end_of_main 18B 0 CODE 0
__Htext 0 0 ABS 0
__Ltext 0 0 ABS 0
__end_of___fldiv 136D 0 CODE 0
__div_to_l_ 1008 0 CODE 0
__Umul8_16@product 74 0 COMMON 1
___wmul@multiplier 70 0 COMMON 1
?___xxtofl 70 0 COMMON 1
___flmul@sign 31 0 BANK0 1
end_of_initialization 7FC 0 CODE 0
__Umul8_16 1A6E 0 CODE 0
___fldiv@sign 4F 0 BANK0 1
___awdiv@sign 21 0 BANK0 1
__size_of__div_to_l_ 0 0 ABS 0
__end_of___flneg 11 0 CODE 0
___stacklo 0 0 ABS 0
___wmul@multiplicand 72 0 COMMON 1
__stringtab 1800 0 STRING 0
__end_of_Inicializar_ADC 1008 0 CODE 0
fround@prec 51 0 BANK0 1
main@dato_lcd E6 0 BANK1 1
__Hstrings 0 0 ABS 0
__Lstrings 0 0 ABS 0
__pstrings 1800 0 STRING 0
___fladd@grs 65 0 BANK0 1
__Hbank0 0 0 ABS 0
__Lbank0 0 0 ABS 0
__Hbank1 0 0 ABS 0
__Lbank1 0 0 ABS 0
__Hbank2 0 0 ABS 0
__Lbank2 0 0 ABS 0
__Hbank3 0 0 ABS 0
__Lbank3 0 0 ABS 0
___latbits 2 0 ABS 0
__Hpowerup 0 0 CODE 0
__Lpowerup 0 0 CODE 0
__div_to_l_@f2 74 0 COMMON 1
__Umul8_16@multiplicand 70 0 COMMON 1
___flmul@grs 32 0 BANK0 1
__ptext1 18B 0 CODE 0
__ptext2 940 0 CODE 0
___fldiv@grs 52 0 BANK0 1
__HdataBANK3 0 0 ABS 0
__LdataBANK3 0 0 ABS 0
__ptext3 1C2F 0 CODE 0
__pdataBANK3 190 0 BANK3 1
__ptext4 805 0 CODE 0
_LCD_putrs 1B47 0 CODE 0
__ptext5 1A00 0 CODE 0
__ptext6 136D 0 CODE 0
__ptext7 1AC9 0 CODE 0
__HcstackBANK1 0 0 ABS 0
__LcstackBANK1 0 0 ABS 0
__ptext8 1B03 0 CODE 0
sprintf@val B1 0 BANK1 1
__ptext9 C9F 0 CODE 0
__pcstackBANK1 A0 0 BANK1 1
__end_of__npowers_ 1878 0 STRING 0
__Hclrtext 0 0 ABS 0
__Lclrtext 0 0 ABS 0
sprintf@eexp B5 0 BANK1 1
__end_of__initialization 7FC 0 CODE 0
__size_of___xxtofl 0 0 ABS 0
__end_of___lwdiv 1B47 0 CODE 0
__size_of_LCD_Out 0 0 ABS 0
__tdiv_to_l_@f1 70 0 COMMON 1
Leer_ADC@canal 74 0 COMMON 1
__end_of__div_to_l_ 10C6 0 CODE 0
?_Leer_ADC 70 0 COMMON 1
__size_of_scale 0 0 ABS 0
main@lcd E1 0 BANK1 1
__size_of___flge 0 0 ABS 0
___fladd 1578 0 CODE 0
__size_of_fround 0 0 ABS 0
___flneg 6 0 CODE 0
__Hstack 0 0 STACK 2
__Lstack 0 0 STACK 2
___llmod 1BDB 0 CODE 0
__end_of___lldiv 1D49 0 CODE 0
___awmod 1C2F 0 CODE 0
___lwmod 1AC9 0 CODE 0
__Hspace_0 2000 0 ABS 0
___flsub 1A25 0 CODE 0
?_fround 3E 0 BANK0 1
__Lspace_0 0 0 ABS 0
_sprintf 18B 0 CODE 0
__Hspace_1 1A4 0 ABS 0
_LCD_Out 10C6 0 CODE 0
__Lspace_1 0 0 ABS 0
___fltol 11 0 CODE 0
__Hspace_2 0 0 ABS 0
__Lspace_2 0 0 ABS 0
___flmul C9F 0 CODE 0
?___wmul 70 0 COMMON 1
_isdigit 1A00 0 CODE 0
__Hcinit 800 0 CODE 0
__Lcinit 7E3 0 CODE 0
___fldiv 1190 0 CODE 0
___lldiv 1CE3 0 CODE 0
___awdiv 805 0 CODE 0
__Hspace_3 0 0 ABS 0
___lwdiv 1B03 0 CODE 0
__Lspace_3 0 0 ABS 0
__size_of_main 0 0 ABS 0
__size_of___flmul 0 0 ABS 0
_dpowers 1878 0 STRING 0
__Hspace_4 400F 0 ABS 0
__Lspace_4 0 0 ABS 0
?__div_to_l_ 70 0 COMMON 1
___xxtofl@sign 78 0 COMMON 1
__tdiv_to_l_ 1F43 0 CODE 0
__div_to_l_@exp1 25 0 BANK0 1
___fltol@exp1 5B 0 BANK0 1
LCD_Init@cmd 7D 0 COMMON 1
__end_of_isdigit 1A12 0 CODE 0
__size_of_LCD_Init 0 0 ABS 0
?__Umul8_16 70 0 COMMON 1
__end_of_sprintf 7E3 0 CODE 0
sprintf@tmpval B7 0 BANK1 1
__size_of___lwdiv 0 0 ABS 0
__size_of___flsub 0 0 ABS 0
___flmul@temp 3C 0 BANK0 1
__size_of_isdigit 0 0 ABS 0
_sprintf$843 AA 0 BANK1 1
sprintf@flag AF 0 BANK1 1
__end_of_Leer_ADC 1AC9 0 CODE 0
__end_of___fladd 1800 0 CODE 0
__HbssBANK1 0 0 ABS 0
__LbssBANK1 0 0 ABS 0
___xxtofl@arg 7A 0 COMMON 1
__pbssBANK1 EC 0 BANK1 1
__ptext10 1A6E 0 CODE 0
__ptext20 6 0 CODE 0
__ptext11 1F43 0 CODE 0
__ptext30 1000 0 CODE 0
__ptext21 1DE7 0 CODE 0
__ptext12 1008 0 CODE 0
__ptext22 1B8D 0 CODE 0
__ptext13 1E89 0 CODE 0
__ptext23 1190 0 CODE 0
sprintf@prec BC 0 BANK1 1
__size_of___awdiv 0 0 ABS 0
__ptext14 1A49 0 CODE 0
_isdigit$663 70 0 COMMON 1
__ptext24 1A95 0 CODE 0
__end_of__tdiv_to_l_ 2000 0 CODE 0
__ptext15 1BDB 0 CODE 0
__ptext25 1B47 0 CODE 0
__ptext16 1CE3 0 CODE 0
__HbssBANK3 0 0 ABS 0
__ptext26 1D49 0 CODE 0
__LbssBANK3 0 0 ABS 0
main@dato_char C3 0 BANK1 1
___llmod@divisor 70 0 COMMON 1
__ptext17 11 0 CODE 0
__pbssBANK3 19F 0 BANK3 1
__end_of_LCD_putc 1DE7 0 CODE 0
___awmod@divisor 70 0 COMMON 1
__end_of___lwmod 1B03 0 CODE 0
__ptext27 86E 0 CODE 0
___lwmod@divisor 70 0 COMMON 1
__ptext18 1A25 0 CODE 0
___fltol@sign1 5A 0 BANK0 1
__end_of_LCD_putrs 1B8D 0 CODE 0
__ptext28 1C88 0 CODE 0
__ptext19 1578 0 CODE 0
__ptext29 10C6 0 CODE 0
__Umul8_16@word_mpld 76 0 COMMON 1
__Hend_init 3 0 CODE 0
__Lend_init 0 0 CODE 0
_Leer_ADC 1A95 0 CODE 0
__end_of_fround 1578 0 CODE 0
___lldiv@divisor 70 0 COMMON 1
__size_of___lldiv 0 0 ABS 0
___awdiv@divisor 77 0 COMMON 1
___lwdiv@divisor 76 0 COMMON 1
__size_of___fladd 0 0 ABS 0
__end_of___llmod 1C2F 0 CODE 0
__tdiv_to_l_@cntr 24 0 BANK0 1
__size_of___wmul 0 0 ABS 0
_GO_nDONE F9 0 ABS 0
__Hreset_vec 0 0 CODE 0
__Lreset_vec 0 0 CODE 0
___xxtofl@exp 79 0 COMMON 1
__size_of_Leer_ADC 0 0 ABS 0
__tdiv_to_l_@exp1 25 0 BANK0 1
__div_to_l_@cntr 24 0 BANK0 1
init_ram0 1A16 0 CODE 0
intlevel0 0 0 ENTRY 0
intlevel1 0 0 ENTRY 0
__end_of_LCD_Write 1CE3 0 CODE 0
___xxtofl@val 70 0 COMMON 1
__size_of__tdiv_to_l_ 0 0 ABS 0
intlevel2 0 0 ENTRY 0
intlevel3 0 0 ENTRY 0
intlevel4 0 0 ENTRY 0
__tdiv_to_l_@f2 74 0 COMMON 1
intlevel5 0 0 ENTRY 0
__end_of__Umul8_16 1A95 0 CODE 0
__size_of_LCD_putc 0 0 ABS 0
__size_of_LCD_putrs 0 0 ABS 0
__size_of___lwmod 0 0 ABS 0
__size_of___fltol 0 0 ABS 0
___fladd@aexp 63 0 BANK0 1
__div_to_l_@quot 20 0 BANK0 1
__HidataBANK3 0 0 ABS 0
__LidataBANK3 0 0 ABS 0
__HcstackCOMMON 0 0 ABS 0
__LcstackCOMMON 0 0 ABS 0
__pidataBANK3 19F1 0 CODE 0
__pcstackCOMMON 70 0 COMMON 1
__end_of___wmul 1A6E 0 CODE 0
___fladd@bexp 64 0 BANK0 1
start_initialization 7E3 0 CODE 0
___lldiv@quotient 79 0 COMMON 1
___awdiv@quotient 22 0 BANK0 1
___lwdiv@quotient 7B 0 COMMON 1
__end_of___xxtofl 1F43 0 CODE 0
__Hmaintext 0 0 ABS 0
__Lmaintext 0 0 ABS 0
___fladd@a 56 0 BANK0 1
__pmaintext 8D 0 CODE 0
__Hinittext 0 0 ABS 0
__Linittext 0 0 ABS 0
___fladd@b 52 0 BANK0 1
__size_of_sprintf 0 0 ABS 0
__size_of___awmod 0 0 ABS 0
___flmul@aexp 36 0 BANK0 1
__size_of___flneg 0 0 ABS 0
___fldiv@aexp 57 0 BANK0 1
LCD_Write@c 77 0 COMMON 1
__initialization 7E3 0 CODE 0
___flmul@bexp 37 0 BANK0 1
___flsub@a 66 0 BANK0 1
___fldiv@bexp 56 0 BANK0 1
__stringbase 180F 0 STRING 0
___flmul@prod 38 0 BANK0 1
___flsub@b 6A 0 BANK0 1
___llmod@dividend 74 0 COMMON 1
___awmod@dividend 72 0 COMMON 1
___lwmod@dividend 72 0 COMMON 1
___llmod@counter 79 0 COMMON 1
___awmod@counter 75 0 COMMON 1
LCD_putc@c 77 0 COMMON 1
___wmul@product 74 0 COMMON 1
___lwmod@counter 75 0 COMMON 1
___flmul@a 28 0 BANK0 1
___fldiv@a 3E 0 BANK0 1
___flmul@b 24 0 BANK0 1
___fldiv@b 42 0 BANK0 1
sprintf@c C2 0 BANK1 1
LCD_Out@c 73 0 COMMON 1
__size_of___llmod 0 0 ABS 0
LCD_putrs@a 78 0 COMMON 1
___lldiv@dividend 74 0 COMMON 1
isdigit@c 71 0 COMMON 1
___awdiv@dividend 79 0 COMMON 1
%segments
reset_vec 0 5 CODE 0 0
cinit FC6 FFF CODE FC6 0
cstackCOMMON 70 7D COMMON 70 1
cstackBANK0 20 6F BANK0 20 1
cstackBANK1 A0 ED BANK1 A0 1
dataBANK3 190 1A3 BANK3 190 1
text1 316 FC5 CODE 316 0
text9 193E 200F CODE 193E 0
text2 1280 193D CODE 1280 0
text19 2AF0 2FFF CODE 2AF0 0
text6 26DA 2AEF CODE 26DA 0
text23 2320 26D9 CODE 2320 0
maintext 11A 315 CODE 11A 0
text27 10DC 127F CODE 10DC 0
text29 218C 231F CODE 218C 0
text12 2010 218B CODE 2010 0
text11 3E86 3FFF CODE 3E86 0
text13 3D12 3E85 CODE 3D12 0
strings 3000 3163 STRING 3000 0
text21 3BCE 3D11 CODE 3BCE 0
text26 3A92 3BCD CODE 3A92 0
text17 22 119 CODE 22 0
text4 100A 10DB CODE 100A 0
text16 39C6 3A91 CODE 39C6 0
text28 3910 39C5 CODE 3910 0
text3 385E 390F CODE 385E 0
text15 37B6 385D CODE 37B6 0
text22 371A 37B5 CODE 371A 0
text25 368E 3719 CODE 368E 0
text8 3606 368D CODE 3606 0
text7 3592 3605 CODE 3592 0
text24 352A 3591 CODE 352A 0
text10 34DC 3529 CODE 34DC 0
text14 3492 34DB CODE 3492 0
text18 344A 3491 CODE 344A 0
inittext 3424 3449 CODE 3424 0
text5 3400 3423 CODE 3400 0
idataBANK3 33E2 33FF CODE 33E2 0
text20 C 21 CODE C 0
%locals
dist/default/production\ADC_ejemplo_02.X.production.o
C:\Users\diego\AppData\Local\Temp\xcAs5q0.s
936 7E3 0 CODE 0
939 7E3 0 CODE 0
1001 7E3 0 CODE 0
1002 7E4 0 CODE 0
1003 7E5 0 CODE 0
1004 7E6 0 CODE 0
1005 7E7 0 CODE 0
1006 7E8 0 CODE 0
1007 7E9 0 CODE 0
1008 7EA 0 CODE 0
1009 7EB 0 CODE 0
1010 7EC 0 CODE 0
1014 7F1 0 CODE 0
1015 7F2 0 CODE 0
1016 7F3 0 CODE 0
1017 7F4 0 CODE 0
1018 7F5 0 CODE 0
1019 7F6 0 CODE 0
1020 7F7 0 CODE 0
1023 7F8 0 CODE 0
1024 7F9 0 CODE 0
1025 7FA 0 CODE 0
1026 7FB 0 CODE 0
1032 7FC 0 CODE 0
1034 7FC 0 CODE 0
1035 7FD 0 CODE 0
975 1A12 0 CODE 0
976 1A12 0 CODE 0
977 1A13 0 CODE 0
978 1A14 0 CODE 0
979 1A15 0 CODE 0
986 1A16 0 CODE 0
987 1A16 0 CODE 0
988 1A1B 0 CODE 0
989 1A1C 0 CODE 0
990 1A1D 0 CODE 0
991 1A1E 0 CODE 0
992 1A1F 0 CODE 0
993 1A20 0 CODE 0
994 1A21 0 CODE 0
995 1A22 0 CODE 0
996 1A23 0 CODE 0
997 1A24 0 CODE 0
main.c
46 8D 0 CODE 0
48 8D 0 CODE 0
49 8D 0 CODE 0
52 8D 0 CODE 0
53 90 0 CODE 0
54 94 0 CODE 0
56 98 0 CODE 0
58 A9 0 CODE 0
60 AE 0 CODE 0
61 C5 0 CODE 0
65 D1 0 CODE 0
67 DD 0 CODE 0
68 133 0 CODE 0
70 149 0 CODE 0
71 155 0 CODE 0
73 15E 0 CODE 0
74 16A 0 CODE 0
75 173 0 CODE 0
77 17C 0 CODE 0
C:\Program Files\Microchip\xc8\v2.32\pic\sources\c90\common\doprnt.c
505 18B 0 CODE 0
550 18E 0 CODE 0
553 192 0 CODE 0
555 193 0 CODE 0
558 199 0 CODE 0
559 1A4 0 CODE 0
565 1A5 0 CODE 0
628 1A7 0 CODE 0
628 1AF 0 CODE 0
629 1B3 0 CODE 0
630 1B4 0 CODE 0
645 1B8 0 CODE 0
646 1BA 0 CODE 0
647 1BB 0 CODE 0
648 1D0 0 CODE 0
648 1DA 0 CODE 0
648 1DF 0 CODE 0
646 1E7 0 CODE 0
652 1F8 0 CODE 0
654 1FA 0 CODE 0
688 1FC 0 CODE 0
689 1FC 0 CODE 0
690 1FD 0 CODE 0
848 1FE 0 CODE 0
848 20F 0 CODE 0
848 214 0 CODE 0
848 217 0 CODE 0
851 21A 0 CODE 0
853 226 0 CODE 0
855 22A 0 CODE 0
856 22E 0 CODE 0
857 240 0 CODE 0
858 259 0 CODE 0
859 272 0 CODE 0
861 276 0 CODE 0
862 27A 0 CODE 0
863 293 0 CODE 0
863 293 0 CODE 0
863 29B 0 CODE 0
864 29E 0 CODE 0
864 2A0 0 CODE 0
865 2A4 0 CODE 0
866 2B7 0 CODE 0
867 2CA 0 CODE 0
868 2CE 0 CODE 0
868 2D0 0 CODE 0
872 2D4 0 CODE 0
873 2F3 0 CODE 0
874 33E 0 CODE 0
875 357 0 CODE 0
875 35B 0 CODE 0
876 360 0 CODE 0
877 37B 0 CODE 0
877 37F 0 CODE 0
1138 383 0 CODE 0
1138 38A 0 CODE 0
1138 38E 0 CODE 0
1139 392 0 CODE 0
1142 3D9 0 CODE 0
1142 3E0 0 CODE 0
1142 3E4 0 CODE 0
1142 426 0 CODE 0
1142 431 0 CODE 0
1142 435 0 CODE 0
1146 439 0 CODE 0
1147 454 0 CODE 0
1147 458 0 CODE 0
1148 45C 0 CODE 0
1149 45D 0 CODE 0
1149 461 0 CODE 0
1151 465 0 CODE 0
1152 483 0 CODE 0
1155 4A2 0 CODE 0
1156 4AA 0 CODE 0
1157 4AB 0 CODE 0
1158 4E0 0 CODE 0
1159 52D 0 CODE 0
1162 52F 0 CODE 0
1163 531 0 CODE 0
1163 534 0 CODE 0
1163 537 0 CODE 0
1163 539 0 CODE 0
1163 557 0 CODE 0
1163 55B 0 CODE 0
1163 55F 0 CODE 0
1163 563 0 CODE 0
1164 568 0 CODE 0
1214 572 0 CODE 0
1216 57E 0 CODE 0
1227 58A 0 CODE 0
1227 58D 0 CODE 0
1227 590 0 CODE 0
1227 592 0 CODE 0
1228 5C5 0 CODE 0
1229 5E4 0 CODE 0
1232 5F0 0 CODE 0
1222 5F0 0 CODE 0
1234 5F8 0 CODE 0
1235 605 0 CODE 0
1235 607 0 CODE 0
1233 60B 0 CODE 0
1233 610 0 CODE 0
1233 614 0 CODE 0
1237 618 0 CODE 0
1237 61F 0 CODE 0
1237 623 0 CODE 0
1238 627 0 CODE 0
1240 62E 0 CODE 0
1241 634 0 CODE 0
1241 63A 0 CODE 0
1245 63D 0 CODE 0
1247 642 0 CODE 0
1253 64D 0 CODE 0
1254 6C5 0 CODE 0
1255 6C6 0 CODE 0
1255 6C9 0 CODE 0
1255 6CC 0 CODE 0
1255 6CE 0 CODE 0
1256 701 0 CODE 0
1257 720 0 CODE 0
1258 72C 0 CODE 0
1258 72F 0 CODE 0
1258 732 0 CODE 0
1258 734 0 CODE 0
1254 767 0 CODE 0
1262 76F 0 CODE 0
1263 77A 0 CODE 0
1263 77C 0 CODE 0
1261 780 0 CODE 0
1316 787 0 CODE 0
1316 791 0 CODE 0
1317 795 0 CODE 0
1317 797 0 CODE 0
1365 79B 0 CODE 0
1365 79E 0 CODE 0
1365 7A2 0 CODE 0
1366 7A6 0 CODE 0
1367 7A7 0 CODE 0
1367 7AE 0 CODE 0
1367 7B2 0 CODE 0
1368 7B6 0 CODE 0
1464 7B6 0 CODE 0
1465 7C4 0 CODE 0
553 7CC 0 CODE 0
1564 7DE 0 CODE 0
1567 7E2 0 CODE 0
433 940 0 CODE 0
436 943 0 CODE 0
437 947 0 CODE 0
438 949 0 CODE 0
438 94C 0 CODE 0
439 950 0 CODE 0
439 970 0 CODE 0
439 973 0 CODE 0
439 975 0 CODE 0
439 9AC 0 CODE 0
439 9AF 0 CODE 0
439 9B1 0 CODE 0
439 9F7 0 CODE 0
439 9FA 0 CODE 0
439 9FC 0 CODE 0
440 A38 0 CODE 0
440 A3B 0 CODE 0
441 A3F 0 CODE 0
441 A52 0 CODE 0
441 A55 0 CODE 0
441 A57 0 CODE 0
441 A8E 0 CODE 0
441 A91 0 CODE 0
441 A93 0 CODE 0
442 AC7 0 CODE 0
442 ACA 0 CODE 0
442 ACD 0 CODE 0
442 ACF 0 CODE 0
444 AF4 0 CODE 0
444 AF7 0 CODE 0
445 AFB 0 CODE 0
445 B1B 0 CODE 0
445 B1E 0 CODE 0
445 B20 0 CODE 0
445 B57 0 CODE 0
445 B5A 0 CODE 0
445 B5C 0 CODE 0
445 BA2 0 CODE 0
445 BA5 0 CODE 0
445 BA7 0 CODE 0
446 BE3 0 CODE 0
446 BE6 0 CODE 0
447 BEA 0 CODE 0
447 BFD 0 CODE 0
447 C00 0 CODE 0
447 C02 0 CODE 0
447 C39 0 CODE 0
447 C3C 0 CODE 0
447 C3E 0 CODE 0
448 C72 0 CODE 0
448 C75 0 CODE 0
448 C78 0 CODE 0
448 C7A 0 CODE 0
449 C9E 0 CODE 0
C:\Program Files\Microchip\xc8\v2.32\pic\sources\c90\common\awmod.c
5 1C2F 0 CODE 0
12 1C2F 0 CODE 0
13 1C30 0 CODE 0
14 1C34 0 CODE 0
14 1C37 0 CODE 0
15 1C39 0 CODE 0
17 1C3B 0 CODE 0
18 1C3F 0 CODE 0
18 1C42 0 CODE 0
19 1C44 0 CODE 0
20 1C4A 0 CODE 0
21 1C4C 0 CODE 0
22 1C4D 0 CODE 0
22 1C4E 0 CODE 0
22 1C52 0 CODE 0
23 1C54 0 CODE 0
21 1C58 0 CODE 0
26 1C5C 0 CODE 0
26 1C5E 0 CODE 0
26 1C62 0 CODE 0
27 1C66 0 CODE 0
27 1C69 0 CODE 0
28 1C6C 0 CODE 0
28 1C6D 0 CODE 0
28 1C71 0 CODE 0
29 1C73 0 CODE 0
31 1C79 0 CODE 0
32 1C7E 0 CODE 0
32 1C81 0 CODE 0
33 1C83 0 CODE 0
34 1C87 0 CODE 0
C:\Program Files\Microchip\xc8\v2.32\pic\sources\c90\common\awdiv.c
5 805 0 CODE 0
13 805 0 CODE 0
14 808 0 CODE 0
15 80C 0 CODE 0
15 80F 0 CODE 0
16 811 0 CODE 0
18 813 0 CODE 0
19 817 0 CODE 0
19 81A 0 CODE 0
20 81C 0 CODE 0
22 820 0 CODE 0
23 822 0 CODE 0
24 828 0 CODE 0
25 82A 0 CODE 0
26 82B 0 CODE 0
26 82C 0 CODE 0
26 830 0 CODE 0
27 832 0 CODE 0
25 836 0 CODE 0
30 83A 0 CODE 0
30 83B 0 CODE 0
30 83F 0 CODE 0
31 841 0 CODE 0
31 843 0 CODE 0
31 847 0 CODE 0
32 84B 0 CODE 0
32 84E 0 CODE 0
33 851 0 CODE 0
35 852 0 CODE 0
35 853 0 CODE 0
35 857 0 CODE 0
36 859 0 CODE 0
38 85F 0 CODE 0
39 864 0 CODE 0
39 867 0 CODE 0
40 869 0 CODE 0
41 86D 0 CODE 0
C:\Program Files\Microchip\xc8\v2.32\pic\sources\c90\common\isdigit.c
8 1A00 0 CODE 0
14 1A01 0 CODE 0
14 1A04 0 CODE 0
14 1A0A 0 CODE 0
15 1A11 0 CODE 0
C:\Program Files\Microchip\xc8\v2.32\pic\sources\c90\common\doprnt.c
417 136D 0 CODE 0
421 1370 0 CODE 0
421 1372 0 CODE 0
422 1376 0 CODE 0
422 1393 0 CODE 0
422 1396 0 CODE 0
422 1398 0 CODE 0
422 13ED 0 CODE 0
422 13F0 0 CODE 0
422 13F2 0 CODE 0
422 1442 0 CODE 0
422 1445 0 CODE 0
422 1447 0 CODE 0
423 1483 0 CODE 0
423 1485 0 CODE 0
424 1489 0 CODE 0
424 14A6 0 CODE 0
424 14A9 0 CODE 0
424 14AB 0 CODE 0
424 14F3 0 CODE 0
424 14F6 0 CODE 0
424 14F8 0 CODE 0
425 1534 0 CODE 0
425 153F 0 CODE 0
425 1542 0 CODE 0
425 1544 0 CODE 0
426 1577 0 CODE 0
C:\Program Files\Microchip\xc8\v2.32\pic\sources\c90\common\lwmod.c
5 1AC9 0 CODE 0
12 1AC9 0 CODE 0
13 1ACF 0 CODE 0
14 1AD1 0 CODE 0
15 1AD2 0 CODE 0
15 1AD3 0 CODE 0
15 1AD7 0 CODE 0
16 1AD9 0 CODE 0
14 1ADD 0 CODE 0
19 1AE1 0 CODE 0
19 1AE3 0 CODE 0
19 1AE7 0 CODE 0
20 1AEB 0 CODE 0
20 1AEE 0 CODE 0
21 1AF1 0 CODE 0
21 1AF2 0 CODE 0
21 1AF6 0 CODE 0
22 1AF8 0 CODE 0
24 1AFE 0 CODE 0
25 1B02 0 CODE 0
C:\Program Files\Microchip\xc8\v2.32\pic\sources\c90\common\lwdiv.c
5 1B03 0 CODE 0
13 1B03 0 CODE 0
14 1B05 0 CODE 0
15 1B0B 0 CODE 0
16 1B0D 0 CODE 0
17 1B0E 0 CODE 0
17 1B0F 0 CODE 0
17 1B13 0 CODE 0
18 1B15 0 CODE 0
16 1B19 0 CODE 0
21 1B1D 0 CODE 0
21 1B1E 0 CODE 0
21 1B22 0 CODE 0
22 1B24 0 CODE 0
22 1B26 0 CODE 0
22 1B2A 0 CODE 0
23 1B2E 0 CODE 0
23 1B31 0 CODE 0
24 1B34 0 CODE 0
26 1B35 0 CODE 0
26 1B36 0 CODE 0
26 1B3A 0 CODE 0
27 1B3C 0 CODE 0
29 1B42 0 CODE 0
30 1B46 0 CODE 0
C:\Program Files\Microchip\xc8\v2.32\pic\sources\c90\common\sprcmul.c
8 C9F 0 CODE 0
17 C9F 0 CODE 0
18 CA6 0 CODE 0
19 CAC 0 CODE 0
20 CB0 0 CODE 0
24 CB1 0 CODE 0
26 CB6 0 CODE 0
28 CBB 0 CODE 0
31 CC3 0 CODE 0
33 CC4 0 CODE 0
36 CC5 0 CODE 0
39 CCD 0 CODE 0
40 CD2 0 CODE 0
41 CD8 0 CODE 0
42 CDC 0 CODE 0
45 CDD 0 CODE 0
48 CE2 0 CODE 0
50 CE7 0 CODE 0
53 CEF 0 CODE 0
54 CF0 0 CODE 0
57 CF1 0 CODE 0
65 CF9 0 CODE 0
66 D03 0 CODE 0
119 D0C 0 CODE 0
120 D1C 0 CODE 0
121 D29 0 CODE 0
122 D36 0 CODE 0
123 D46 0 CODE 0
123 D4E 0 CODE 0
123 D4F 0 CODE 0
123 D51 0 CODE 0
123 D55 0 CODE 0
123 D56 0 CODE 0
123 D58 0 CODE 0
123 D5C 0 CODE 0
123 D5D 0 CODE 0
123 D5F 0 CODE 0
124 D62 0 CODE 0
124 D6A 0 CODE 0
124 D6B 0 CODE 0
124 D6D 0 CODE 0
124 D71 0 CODE 0
124 D72 0 CODE 0
124 D74 0 CODE 0
124 D78 0 CODE 0
124 D79 0 CODE 0
124 D7B 0 CODE 0
125 D7E 0 CODE 0
126 D8E 0 CODE 0
126 D96 0 CODE 0
126 D97 0 CODE 0
126 D99 0 CODE 0
126 D9D 0 CODE 0
126 D9E 0 CODE 0
126 DA0 0 CODE 0
126 DA4 0 CODE 0
126 DA5 0 CODE 0
126 DA7 0 CODE 0
127 DAA 0 CODE 0
127 DB2 0 CODE 0
127 DB3 0 CODE 0
127 DB5 0 CODE 0
127 DB9 0 CODE 0
127 DBA 0 CODE 0
127 DBC 0 CODE 0
127 DC0 0 CODE 0
127 DC1 0 CODE 0
127 DC3 0 CODE 0
128 DC6 0 CODE 0
128 DC8 0 CODE 0
129 DCF 0 CODE 0
130 DDF 0 CODE 0
130 DE8 0 CODE 0
130 DE9 0 CODE 0
130 DEB 0 CODE 0
130 DEF 0 CODE 0
130 DF0 0 CODE 0
130 DF2 0 CODE 0
130 DF6 0 CODE 0
130 DF7 0 CODE 0
130 DF9 0 CODE 0
131 DFC 0 CODE 0
132 E0C 0 CODE 0
132 E15 0 CODE 0
132 E16 0 CODE 0
132 E18 0 CODE 0
132 E1C 0 CODE 0
132 E1D 0 CODE 0
132 E1F 0 CODE 0
132 E23 0 CODE 0
132 E24 0 CODE 0
132 E26 0 CODE 0
133 E29 0 CODE 0
133 E2B 0 CODE 0
134 E32 0 CODE 0
135 E42 0 CODE 0
135 E4B 0 CODE 0
135 E4C 0 CODE 0
135 E4E 0 CODE 0
135 E52 0 CODE 0
135 E53 0 CODE 0
135 E55 0 CODE 0
135 E59 0 CODE 0
135 E5A 0 CODE 0
135 E5C 0 CODE 0
136 E5F 0 CODE 0
137 E6F 0 CODE 0
137 E78 0 CODE 0
137 E79 0 CODE 0
137 E7B 0 CODE 0
137 E7F 0 CODE 0
137 E80 0 CODE 0
137 E82 0 CODE 0
137 E86 0 CODE 0
137 E87 0 CODE 0
137 E89 0 CODE 0
138 E8C 0 CODE 0
139 E9C 0 CODE 0
139 EA5 0 CODE 0
139 EA6 0 CODE 0
139 EA8 0 CODE 0
139 EAC 0 CODE 0
139 EAD 0 CODE 0
139 EAF 0 CODE 0
139 EB3 0 CODE 0
139 EB4 0 CODE 0
139 EB6 0 CODE 0
140 EB9 0 CODE 0
141 EC9 0 CODE 0
141 ED0 0 CODE 0
141 ED6 0 CODE 0
141 EDB 0 CODE 0
141 EDC 0 CODE 0
141 EDE 0 CODE 0
141 EE2 0 CODE 0
141 EE3 0 CODE 0
141 EE5 0 CODE 0
141 EE9 0 CODE 0
141 EEA 0 CODE 0
141 EEC 0 CODE 0
145 EEF 0 CODE 0
145 EF8 0 CODE 0
145 EFE 0 CODE 0
145 F03 0 CODE 0
145 F04 0 CODE 0
145 F06 0 CODE 0
145 F0A 0 CODE 0
145 F0B 0 CODE 0
145 F0D 0 CODE 0
145 F11 0 CODE 0
145 F12 0 CODE 0
145 F14 0 CODE 0
146 F17 0 CODE 0
146 F19 0 CODE 0
149 F20 0 CODE 0
149 F29 0 CODE 0
152 F2D 0 CODE 0
153 F2E 0 CODE 0
153 F30 0 CODE 0
154 F37 0 CODE 0
155 F3B 0 CODE 0
157 F3C 0 CODE 0
157 F3E 0 CODE 0
158 F45 0 CODE 0
158 F47 0 CODE 0
152 F4B 0 CODE 0
163 F4F 0 CODE 0
164 F50 0 CODE 0
165 F54 0 CODE 0
165 F64 0 CODE 0
166 F68 0 CODE 0
167 F6A 0 CODE 0
168 F6B 0 CODE 0
169 F6B 0 CODE 0
174 F70 0 CODE 0
175 F75 0 CODE 0
175 F78 0 CODE 0
175 F7C 0 CODE 0
175 F80 0 CODE 0
176 F83 0 CODE 0
177 F87 0 CODE 0
178 FA0 0 CODE 0
178 FA2 0 CODE 0
183 FA6 0 CODE 0
183 FAB 0 CODE 0
183 FAF 0 CODE 0
184 FB3 0 CODE 0
185 FBD 0 CODE 0
187 FBE 0 CODE 0
187 FC5 0 CODE 0
187 FC9 0 CODE 0
188 FCD 0 CODE 0
190 FD7 0 CODE 0
191 FD8 0 CODE 0
194 FD9 0 CODE 0
195 FDF 0 CODE 0
196 FE7 0 CODE 0
197 FEB 0 CODE 0
199 FEC 0 CODE 0
199 FEE 0 CODE 0
200 FF3 0 CODE 0
201 FF3 0 CODE 0
203 FF7 0 CODE 0
205 FFF 0 CODE 0
C:\Program Files\Microchip\xc8\v2.32\pic\sources\c90\common\Umul8_16.c
4 1A6E 0 CODE 0
5 1A6F 0 CODE 0
6 1A71 0 CODE 0
51 1A78 0 CODE 0
52 1A7C 0 CODE 0
52 1A7E 0 CODE 0
53 1A82 0 CODE 0
54 1A82 0 CODE 0
54 1A83 0 CODE 0
54 1A87 0 CODE 0
55 1A89 0 CODE 0
56 1A8B 0 CODE 0
59 1A90 0 CODE 0
60 1A94 0 CODE 0
C:\Program Files\Microchip\xc8\v2.32\pic\sources\c90\common\ftdivl.c
60 1F43 0 CODE 0
66 1F43 0 CODE 0
66 1F49 0 CODE 0
67 1F56 0 CODE 0
68 1F5F 0 CODE 0
68 1F65 0 CODE 0
69 1F71 0 CODE 0
70 1F71 0 CODE 0
71 1F72 0 CODE 0
72 1F78 0 CODE 0
73 1F79 0 CODE 0
74 1F7F 0 CODE 0
75 1F87 0 CODE 0
76 1F89 0 CODE 0
77 1F8E 0 CODE 0
79 1F92 0 CODE 0
79 1F94 0 CODE 0
80 1F9B 0 CODE 0
80 1F9D 0 CODE 0
80 1FA1 0 CODE 0
80 1FA5 0 CODE 0
81 1FA9 0 CODE 0
81 1FAC 0 CODE 0
81 1FB0 0 CODE 0
82 1FB3 0 CODE 0
84 1FB4 0 CODE 0
84 1FB5 0 CODE 0
84 1FBA 0 CODE 0
85 1FBC 0 CODE 0
86 1FC2 0 CODE 0
87 1FC6 0 CODE 0
87 1FC9 0 CODE 0
90 1FCE 0 CODE 0
90 1FCF 0 CODE 0
90 1FD5 0 CODE 0
91 1FD7 0 CODE 0
93 1FE0 0 CODE 0
93 1FE2 0 CODE 0
96 1FE7 0 CODE 0
96 1FE9 0 CODE 0
97 1FF0 0 CODE 0
98 1FF2 0 CODE 0
95 1FF2 0 CODE 0
100 1FF7 0 CODE 0
101 1FFF 0 CODE 0
C:\Program Files\Microchip\xc8\v2.32\pic\sources\c90\common\fldivl.c
60 1008 0 CODE 0
66 1008 0 CODE 0
66 1008 0 CODE 0
67 1015 0 CODE 0
68 101E 0 CODE 0
68 101E 0 CODE 0
69 102A 0 CODE 0
70 102A 0 CODE 0
71 102B 0 CODE 0
72 1033 0 CODE 0
73 1034 0 CODE 0
74 103C 0 CODE 0
75 1044 0 CODE 0
76 1046 0 CODE 0
77 104B 0 CODE 0
79 104F 0 CODE 0
79 1051 0 CODE 0
80 1058 0 CODE 0
80 105A 0 CODE 0
80 105E 0 CODE 0
80 1062 0 CODE 0
80 1066 0 CODE 0
81 106A 0 CODE 0
81 106D 0 CODE 0
81 1071 0 CODE 0
81 1075 0 CODE 0
82 1078 0 CODE 0
84 1079 0 CODE 0
84 107B 0 CODE 0
85 1082 0 CODE 0
86 1088 0 CODE 0
87 108C 0 CODE 0
87 108F 0 CODE 0
90 1094 0 CODE 0
90 1095 0 CODE 0
90 109B 0 CODE 0
91 109D 0 CODE 0
93 10A6 0 CODE 0
93 10A8 0 CODE 0
96 10AD 0 CODE 0
96 10AF 0 CODE 0
97 10B6 0 CODE 0
98 10B8 0 CODE 0
95 10B8 0 CODE 0
100 10BD 0 CODE 0
101 10C5 0 CODE 0
C:\Program Files\Microchip\xc8\v2.32\pic\sources\c90\common\xxtofl.c
10 1E89 0 CODE 0
15 1E8A 0 CODE 0
16 1E93 0 CODE 0
16 1E9C 0 CODE 0
16 1E9E 0 CODE 0
16 1EA0 0 CODE 0
17 1EA2 0 CODE 0
19 1EA3 0 CODE 0
20 1EAB 0 CODE 0
21 1EAB 0 CODE 0
21 1EAF 0 CODE 0
22 1EB3 0 CODE 0
23 1EBC 0 CODE 0
24 1EC0 0 CODE 0
25 1EC1 0 CODE 0
26 1EC5 0 CODE 0
26 1EC6 0 CODE 0
26 1ECC 0 CODE 0
24 1ECE 0 CODE 0
29 1ED5 0 CODE 0
30 1ED9 0 CODE 0
30 1EDC 0 CODE 0
30 1EE0 0 CODE 0
30 1EE4 0 CODE 0
31 1EE7 0 CODE 0
31 1EE8 0 CODE 0
31 1EEE 0 CODE 0
32 1EF0 0 CODE 0
28 1EF0 0 CODE 0
34 1EF7 0 CODE 0
35 1EF9 0 CODE 0
35 1EFB 0 CODE 0
33 1F02 0 CODE 0
33 1F08 0 CODE 0
37 1F0C 0 CODE 0
38 1F10 0 CODE 0
39 1F18 0 CODE 0
40 1F1A 0 CODE 0
40 1F20 0 CODE 0
40 1F26 0 CODE 0
41 1F30 0 CODE 0
42 1F39 0 CODE 0
43 1F3A 0 CODE 0
44 1F42 0 CODE 0
C:\Program Files\Microchip\xc8\v2.32\pic\sources\c90\common\Umul16.c
15 1A49 0 CODE 0
43 1A49 0 CODE 0
45 1A4B 0 CODE 0
46 1A4F 0 CODE 0
46 1A51 0 CODE 0
47 1A55 0 CODE 0
47 1A56 0 CODE 0
47 1A5A 0 CODE 0
48 1A5C 0 CODE 0
48 1A5D 0 CODE 0
48 1A61 0 CODE 0
49 1A63 0 CODE 0
52 1A69 0 CODE 0
53 1A6D 0 CODE 0
C:\Program Files\Microchip\xc8\v2.32\pic\sources\c90\common\llmod.c
5 1BDB 0 CODE 0
12 1BDB 0 CODE 0
12 1BDF 0 CODE 0
13 1BE3 0 CODE 0
14 1BE5 0 CODE 0
15 1BE6 0 CODE 0
15 1BE8 0 CODE 0
16 1BEF 0 CODE 0
14 1BF3 0 CODE 0
19 1BF7 0 CODE 0
19 1BF9 0 CODE 0
19 1BFD 0 CODE 0
19 1C01 0 CODE 0
19 1C05 0 CODE 0
20 1C09 0 CODE 0
20 1C0C 0 CODE 0
20 1C10 0 CODE 0
20 1C14 0 CODE 0
21 1C17 0 CODE 0
21 1C18 0 CODE 0
21 1C1E 0 CODE 0
22 1C20 0 CODE 0
24 1C26 0 CODE 0
25 1C2E 0 CODE 0
C:\Program Files\Microchip\xc8\v2.32\pic\sources\c90\common\__lldiv.c
5 1CE3 0 CODE 0
13 1CE3 0 CODE 0
14 1CEB 0 CODE 0
14 1CEF 0 CODE 0
15 1CF3 0 CODE 0
16 1CF5 0 CODE 0
17 1CF6 0 CODE 0
17 1CF8 0 CODE 0
18 1CFF 0 CODE 0
16 1D03 0 CODE 0
21 1D07 0 CODE 0
21 1D09 0 CODE 0
22 1D10 0 CODE 0
22 1D12 0 CODE 0
22 1D16 0 CODE 0
22 1D1A 0 CODE 0
22 1D1E 0 CODE 0
23 1D22 0 CODE 0
23 1D25 0 CODE 0
23 1D29 0 CODE 0
23 1D2D 0 CODE 0
24 1D30 0 CODE 0
26 1D31 0 CODE 0
26 1D32 0 CODE 0
26 1D38 0 CODE 0
27 1D3A 0 CODE 0
29 1D40 0 CODE 0
30 1D48 0 CODE 0
C:\Program Files\Microchip\xc8\v2.32\pic\sources\c90\common\fltol.c
43 11 0 CODE 0
47 11 0 CODE 0
47 11 0 CODE 0
48 1E 0 CODE 0
49 27 0 CODE 0
49 30 0 CODE 0
49 36 0 CODE 0
50 3C 0 CODE 0
51 3D 0 CODE 0
52 45 0 CODE 0
53 47 0 CODE 0
54 4B 0 CODE 0
54 4E 0 CODE 0
57 53 0 CODE 0
57 54 0 CODE 0
57 5A 0 CODE 0
58 5C 0 CODE 0
60 65 0 CODE 0
60 67 0 CODE 0
63 6C 0 CODE 0
63 6E 0 CODE 0
64 75 0 CODE 0
65 77 0 CODE 0
62 77 0 CODE 0
67 7C 0 CODE 0
68 81 0 CODE 0
68 86 0 CODE 0
68 88 0 CODE 0
68 8A 0 CODE 0
70 8C 0 CODE 0
C:\Program Files\Microchip\xc8\v2.32\pic\sources\c90\common\sprcadd.c
242 1A25 0 CODE 0
248 1A25 0 CODE 0
249 1A29 0 CODE 0
250 1A48 0 CODE 0
10 1578 0 CODE 0
21 1578 0 CODE 0
22 157F 0 CODE 0
23 1585 0 CODE 0
24 1589 0 CODE 0
28 158A 0 CODE 0
30 158F 0 CODE 0
32 1594 0 CODE 0
35 159C 0 CODE 0
37 159D 0 CODE 0
38 159E 0 CODE 0
41 159F 0 CODE 0
44 15A7 0 CODE 0
46 15AC 0 CODE 0
46 15AE 0 CODE 0
47 15B2 0 CODE 0
49 15B3 0 CODE 0
50 15B9 0 CODE 0
51 15BD 0 CODE 0
55 15BE 0 CODE 0
57 15C3 0 CODE 0
59 15C8 0 CODE 0
62 15D0 0 CODE 0
64 15D1 0 CODE 0
65 15D2 0 CODE 0
68 15D3 0 CODE 0
69 15DB 0 CODE 0
75 15DB 0 CODE 0
75 15DD 0 CODE 0
77 15E1 0 CODE 0
78 15E5 0 CODE 0
81 15E9 0 CODE 0
82 15ED 0 CODE 0
83 15F1 0 CODE 0
84 15F5 0 CODE 0
85 15F9 0 CODE 0
86 15FD 0 CODE 0
87 1601 0 CODE 0
88 1605 0 CODE 0
89 1609 0 CODE 0
90 160D 0 CODE 0
91 1611 0 CODE 0
92 1615 0 CODE 0
93 1619 0 CODE 0
94 161D 0 CODE 0
95 1621 0 CODE 0
98 1625 0 CODE 0
100 1626 0 CODE 0
100 162E 0 CODE 0
100 1635 0 CODE 0
100 1639 0 CODE 0
101 163D 0 CODE 0
101 1643 0 CODE 0
102 164C 0 CODE 0
103 1654 0 CODE 0
104 1658 0 CODE 0
106 1659 0 CODE 0
109 1659 0 CODE 0
110 165D 0 CODE 0
110 165F 0 CODE 0
111 1665 0 CODE 0
113 1666 0 CODE 0
113 1666 0 CODE 0
115 1668 0 CODE 0
116 166C 0 CODE 0
118 166D 0 CODE 0
119 1676 0 CODE 0
106 167A 0 CODE 0
106 167E 0 CODE 0
121 1682 0 CODE 0
124 1682 0 CODE 0
127 1686 0 CODE 0
128 168B 0 CODE 0
132 1694 0 CODE 0
132 1697 0 CODE 0
132 1698 0 CODE 0
132 169A 0 CODE 0
132 169E 0 CODE 0
132 169F 0 CODE 0
132 16A1 0 CODE 0
132 16A5 0 CODE 0
132 16A6 0 CODE 0
132 16A8 0 CODE 0
134 16AB 0 CODE 0
135 16AF 0 CODE 0
136 16B3 0 CODE 0
136 16B5 0 CODE 0
137 16BB 0 CODE 0
139 16BC 0 CODE 0
139 16BC 0 CODE 0
141 16BE 0 CODE 0
142 16C2 0 CODE 0
144 16C3 0 CODE 0
145 16CC 0 CODE 0
153 16D1 0 CODE 0
153 16D7 0 CODE 0
153 16DB 0 CODE 0
153 16DF 0 CODE 0
153 16E3 0 CODE 0
154 16E7 0 CODE 0
154 16FA 0 CODE 0
154 1700 0 CODE 0
154 1706 0 CODE 0
154 170E 0 CODE 0
154 1714 0 CODE 0
154 171A 0 CODE 0
155 1725 0 CODE 0
156 1729 0 CODE 0
157 172B 0 CODE 0
158 1730 0 CODE 0
158 1733 0 CODE 0
158 1737 0 CODE 0
158 173B 0 CODE 0
162 173F 0 CODE 0
162 1742 0 CODE 0
162 1746 0 CODE 0
162 174A 0 CODE 0
163 174D 0 CODE 0
166 174D 0 CODE 0
166 1751 0 CODE 0
167 175A 0 CODE 0
172 1763 0 CODE 0
172 1765 0 CODE 0
173 176C 0 CODE 0
174 1770 0 CODE 0
175 1771 0 CODE 0
176 1771 0 CODE 0
177 1775 0 CODE 0
177 1775 0 CODE 0
178 1777 0 CODE 0
180 1778 0 CODE 0
180 1778 0 CODE 0
182 177A 0 CODE 0
183 177F 0 CODE 0
171 1781 0 CODE 0
192 1785 0 CODE 0
193 1786 0 CODE 0
194 178A 0 CODE 0
195 1790 0 CODE 0
196 1792 0 CODE 0
197 1793 0 CODE 0
198 1793 0 CODE 0
203 1798 0 CODE 0
204 179D 0 CODE 0
204 17A0 0 CODE 0
204 17A4 0 CODE 0
204 17A8 0 CODE 0
205 17AB 0 CODE 0
206 17AF 0 CODE 0
207 17C8 0 CODE 0
208 17CD 0 CODE 0
211 17D1 0 CODE 0
215 17D1 0 CODE 0
216 17DB 0 CODE 0
218 17E3 0 CODE 0
219 17E8 0 CODE 0
225 17E9 0 CODE 0
226 17ED 0 CODE 0
227 17EE 0 CODE 0
230 17EF 0 CODE 0
231 17F3 0 CODE 0
232 17F3 0 CODE 0
232 17F5 0 CODE 0
233 17FA 0 CODE 0
234 17FE 0 CODE 0
235 17FF 0 CODE 0
237 17FF 0 CODE 0
C:\Program Files\Microchip\xc8\v2.32\pic\sources\c90\common\flneg.c
15 6 0 CODE 0
17 6 0 CODE 0
17 A 0 CODE 0
18 E 0 CODE 0
19 10 0 CODE 0
20 10 0 CODE 0
C:\Program Files\Microchip\xc8\v2.32\pic\sources\c90\common\flge.c
4 1DE7 0 CODE 0
7 1DE7 0 CODE 0
7 1DF7 0 CODE 0
8 1DFB 0 CODE 0
9 1E03 0 CODE 0
9 1E13 0 CODE 0
10 1E17 0 CODE 0
12 1E1F 0 CODE 0
13 1E23 0 CODE 0
13 1E2E 0 CODE 0
13 1E34 0 CODE 0
13 1E3A 0 CODE 0
14 1E47 0 CODE 0
15 1E4B 0 CODE 0
15 1E56 0 CODE 0
15 1E5C 0 CODE 0
15 1E62 0 CODE 0
16 1E6F 0 CODE 0
17 1E71 0 CODE 0
18 1E73 0 CODE 0
18 1E75 0 CODE 0
18 1E79 0 CODE 0
18 1E7D 0 CODE 0
18 1E81 0 CODE 0
18 1E85 0 CODE 0
18 1E87 0 CODE 0
19 1E88 0 CODE 0
C:\Program Files\Microchip\xc8\v2.32\pic\sources\c90\common\fleq.c
4 1B8D 0 CODE 0
7 1B8D 0 CODE 0
7 1B9D 0 CODE 0
8 1BA1 0 CODE 0
9 1BA9 0 CODE 0
9 1BB9 0 CODE 0
10 1BBD 0 CODE 0
11 1BC5 0 CODE 0
11 1BC7 0 CODE 0
11 1BCB 0 CODE 0
11 1BCF 0 CODE 0
11 1BD3 0 CODE 0
11 1BD7 0 CODE 0
11 1BD9 0 CODE 0
12 1BDA 0 CODE 0
C:\Program Files\Microchip\xc8\v2.32\pic\sources\c90\common\sprcdiv.c
8 1190 0 CODE 0
26 1190 0 CODE 0
27 1197 0 CODE 0
28 119D 0 CODE 0
29 11A1 0 CODE 0
33 11A2 0 CODE 0
35 11A7 0 CODE 0
37 11AC 0 CODE 0
40 11B4 0 CODE 0
42 11B5 0 CODE 0
43 11B6 0 CODE 0
46 11B7 0 CODE 0
49 11BF 0 CODE 0
50 11C4 0 CODE 0
51 11CA 0 CODE 0
52 11CE 0 CODE 0
56 11CF 0 CODE 0
58 11D4 0 CODE 0
60 11D9 0 CODE 0
63 11E1 0 CODE 0
65 11E2 0 CODE 0
66 11E3 0 CODE 0
69 11E4 0 CODE 0
70 11EC 0 CODE 0
75 11EC 0 CODE 0
75 11F0 0 CODE 0
76 11F4 0 CODE 0
77 11FC 0 CODE 0
78 1200 0 CODE 0
79 1204 0 CODE 0
83 120D 0 CODE 0
84 1212 0 CODE 0
85 1212 0 CODE 0
89 121B 0 CODE 0
89 1223 0 CODE 0
89 1229 0 CODE 0
92 122D 0 CODE 0
93 1235 0 CODE 0
94 123D 0 CODE 0
96 1245 0 CODE 0
97 1246 0 CODE 0
100 1247 0 CODE 0
101 124C 0 CODE 0
101 124E 0 CODE 0
102 1255 0 CODE 0
102 1257 0 CODE 0
103 125E 0 CODE 0
104 1262 0 CODE 0
106 1263 0 CODE 0
106 1265 0 CODE 0
112 126C 0 CODE 0
112 126E 0 CODE 0
112 1272 0 CODE 0
112 1276 0 CODE 0
112 127A 0 CODE 0
115 127E 0 CODE 0
116 127F 0 CODE 0
116 1282 0 CODE 0
116 1286 0 CODE 0
116 128A 0 CODE 0
118 128D 0 CODE 0
97 1291 0 CODE 0
97 1293 0 CODE 0
122 1297 0 CODE 0
122 129B 0 CODE 0
123 129F 0 CODE 0
128 12A1 0 CODE 0
128 12A3 0 CODE 0
129 12AA 0 CODE 0
130 12AE 0 CODE 0
132 12AF 0 CODE 0
132 12B1 0 CODE 0
133 12B8 0 CODE 0
133 12BA 0 CODE 0
127 12BE 0 CODE 0
139 12C2 0 CODE 0
140 12C3 0 CODE 0
141 12C7 0 CODE 0
141 12D7 0 CODE 0
142 12DB 0 CODE 0
143 12DD 0 CODE 0
144 12DE 0 CODE 0
145 12DE 0 CODE 0
150 12E3 0 CODE 0
151 12E8 0 CODE 0
151 12EB 0 CODE 0
151 12EF 0 CODE 0
151 12F3 0 CODE 0
152 12F6 0 CODE 0
153 12FA 0 CODE 0
154 1313 0 CODE 0
154 1315 0 CODE 0
159 1319 0 CODE 0
159 131E 0 CODE 0
159 1322 0 CODE 0
160 1326 0 CODE 0
161 132C 0 CODE 0
165 1334 0 CODE 0
165 133B 0 CODE 0
165 133F 0 CODE 0
166 1343 0 CODE 0
167 1347 0 CODE 0
169 134F 0 CODE 0
170 1350 0 CODE 0
173 1350 0 CODE 0
175 1356 0 CODE 0
176 135A 0 CODE 0
177 135B 0 CODE 0
180 135C 0 CODE 0
181 1360 0 CODE 0
182 1360 0 CODE 0
182 1362 0 CODE 0
183 1367 0 CODE 0
185 136C 0 CODE 0
main.c
31 1A95 0 CODE 0
33 1A96 0 CODE 0
33 1A98 0 CODE 0
34 1A9C 0 CODE 0
36 1A9F 0 CODE 0
37 1AA5 0 CODE 0
37 1AA8 0 CODE 0
37 1AAB 0 CODE 0
37 1AAD 0 CODE 0
38 1AB2 0 CODE 0
39 1ABB 0 CODE 0
40 1ABE 0 CODE 0
42 1AC2 0 CODE 0
43 1AC8 0 CODE 0
lcd.c
142 1B47 0 CODE 0
144 1B47 0 CODE 0
145 1B4C 0 CODE 0
145 1B51 0 CODE 0
146 1B68 0 CODE 0
146 1B6C 0 CODE 0
146 1B75 0 CODE 0
146 1B88 0 CODE 0
148 1B8C 0 CODE 0
117 1D49 0 CODE 0
119 1D4A 0 CODE 0
119 1D52 0 CODE 0
119 1D55 0 CODE 0
120 1D60 0 CODE 0
120 1D63 0 CODE 0
120 1D66 0 CODE 0
122 1D6F 0 CODE 0
122 1D7A 0 CODE 0
122 1D7D 0 CODE 0
123 1D88 0 CODE 0
124 1D8D 0 CODE 0
124 1D98 0 CODE 0
124 1D9B 0 CODE 0
126 1DA7 0 CODE 0
128 1DAE 0 CODE 0
128 1DB9 0 CODE 0
128 1DBC 0 CODE 0
129 1DC7 0 CODE 0
130 1DCC 0 CODE 0
130 1DD7 0 CODE 0
130 1DDA 0 CODE 0
132 1DE6 0 CODE 0
61 86E 0 CODE 0
63 86E 0 CODE 0
72 87F 0 CODE 0
72 883 0 CODE 0
72 887 0 CODE 0
73 88B 0 CODE 0
74 88E 0 CODE 0
75 88F 0 CODE 0
75 891 0 CODE 0
75 895 0 CODE 0
76 899 0 CODE 0
77 89C 0 CODE 0
78 89D 0 CODE 0
78 89F 0 CODE 0
78 8A3 0 CODE 0
79 8A7 0 CODE 0
80 8AA 0 CODE 0
81 8AB 0 CODE 0
81 8AD 0 CODE 0
81 8B1 0 CODE 0
82 8B5 0 CODE 0
83 8B8 0 CODE 0
84 8B9 0 CODE 0
84 8BB 0 CODE 0
84 8BF 0 CODE 0
85 8C3 0 CODE 0
92 8C6 0 CODE 0
95 8D0 0 CODE 0
96 8D6 0 CODE 0
97 8E1 0 CODE 0
98 8E7 0 CODE 0
99 8F2 0 CODE 0
102 8F8 0 CODE 0
105 8FE 0 CODE 0
108 90A 0 CODE 0
110 916 0 CODE 0
110 920 0 CODE 0
110 923 0 CODE 0
112 933 0 CODE 0
115 93F 0 CODE 0
50 1C88 0 CODE 0
52 1C89 0 CODE 0
52 1C91 0 CODE 0
52 1C94 0 CODE 0
53 1CA0 0 CODE 0
55 1CA6 0 CODE 0
55 1CB1 0 CODE 0
55 1CB4 0 CODE 0
56 1CBF 0 CODE 0
57 1CC8 0 CODE 0
57 1CD3 0 CODE 0
57 1CD6 0 CODE 0
59 1CE2 0 CODE 0
18 10C6 0 CODE 0
20 10C7 0 CODE 0
21 10CB 0 CODE 0
21 10D3 0 CODE 0
21 10D6 0 CODE 0
22 10E1 0 CODE 0
24 10E2 0 CODE 0
24 10EA 0 CODE 0
24 10ED 0 CODE 0
27 10F9 0 CODE 0
28 10FD 0 CODE 0
28 1106 0 CODE 0
28 1109 0 CODE 0
29 1114 0 CODE 0
31 1115 0 CODE 0
31 111E 0 CODE 0
31 1121 0 CODE 0
34 112D 0 CODE 0
35 1131 0 CODE 0
35 1137 0 CODE 0
35 113A 0 CODE 0
36 1145 0 CODE 0
38 1146 0 CODE 0
38 114C 0 CODE 0
38 114F 0 CODE 0
41 115B 0 CODE 0
42 115F 0 CODE 0
42 1168 0 CODE 0
42 116B 0 CODE 0
43 1176 0 CODE 0
45 1177 0 CODE 0
45 1180 0 CODE 0
45 1183 0 CODE 0
48 118F 0 CODE 0
main.c
25 1000 0 CODE 0
27 1000 0 CODE 0
28 1004 0 CODE 0
29 1007 0 CODE 0
