_RB0 30 0 ABS 0
_RB1 31 0 ABS 0
LCD_Init@display 78 0 COMMON 1
_RB2 32 0 ABS 0
_RB3 33 0 ABS 0
__S0 800 0 ABS 0
__S1 7E 0 ABS 0
__S2 0 0 ABS 0
__S3 0 0 ABS 0
__Hintentry 0 0 CODE 0
__Lintentry 0 0 CODE 0
_lcd 2E 0 BANK0 1
_IOCB 96 0 ABS 0
_WPUB 95 0 ABS 0
__end_of_LCD_Init 5F6 0 CODE 0
__end_of_LCD_Out 6C0 0 CODE 0
_main 6C0 0 CODE 0
___sp 0 0 STACK 2
btemp 7E 0 ABS 0
start 0 0 CODE 0
_text 9 0 STRING 0
main@teclado 2A 0 BANK0 1
_TRISA 85 0 ABS 0
_TRISB 86 0 ABS 0
_TRISC 87 0 ABS 0
_PORTA 5 0 ABS 0
reset_vec 0 0 CODE 0
_PORTB 6 0 ABS 0
_PORTC 7 0 ABS 0
wtemp0 7E 0 ABS 0
__Hconfig 2008 0 CONFIG 4
__Lconfig 0 0 CONFIG 4
__end_of__stringtab 9 0 STRING 0
_LCD_putc 3FF 0 CODE 0
__Hram 0 0 ABS 0
__Lram 0 0 ABS 0
main@F1472 33 0 BANK0 1
_LCD_Init 540 0 CODE 0
__Hfunctab 0 0 ENTRY 0
__Lfunctab 0 0 ENTRY 0
LCD_putrs@i 78 0 COMMON 1
_OPTION_REG 81 0 ABS 0
__Hcommon 0 0 ABS 0
__Lcommon 0 0 ABS 0
__Heeprom_data 0 0 EEDATA 3
__Leeprom_data 0 0 EEDATA 3
___int_sp 0 0 STACK 2
_leer_teclado 49D 0 CODE 0
_ANSELH 189 0 ABS 0
__Habs1 0 0 ABS 0
__Labs1 0 0 ABS 0
__Hsfr0 0 0 ABS 0
__Lsfr0 0 0 ABS 0
__Hsfr1 0 0 ABS 0
__Lsfr1 0 0 ABS 0
__Hsfr2 0 0 ABS 0
__Lsfr2 0 0 ABS 0
__Hsfr3 0 0 ABS 0
__Lsfr3 0 0 ABS 0
__size_of_LCD_Write 0 0 ABS 0
main@selector 2C 0 BANK0 1
___stackhi 0 0 ABS 0
_LCD_Write 3A4 0 CODE 0
__Hcode 0 0 ABS 0
__Lcode 0 0 ABS 0
__HcstackBANK0 0 0 ABS 0
__LcstackBANK0 0 0 ABS 0
__pcstackBANK0 20 0 BANK0 1
__Hinit 0 0 CODE 0
__Linit 0 0 CODE 0
__end_of_main 7D9 0 CODE 0
__Htext 0 0 ABS 0
__Ltext 0 0 ABS 0
__HdataBANK0 0 0 ABS 0
__LdataBANK0 0 0 ABS 0
__pdataBANK0 33 0 BANK0 1
end_of_initialization 7FC 0 CODE 0
___stacklo 0 0 ABS 0
__end_of_leer_teclado 540 0 CODE 0
__stringtab 3 0 STRING 0
?_leer_teclado 70 0 COMMON 1
__Hstrings 0 0 ABS 0
__Lstrings 0 0 ABS 0
__pstrings 3 0 STRING 0
__Hbank0 0 0 ABS 0
__Lbank0 0 0 ABS 0
__Hbank1 0 0 ABS 0
__Lbank1 0 0 ABS 0
__Hbank2 0 0 ABS 0
__Lbank2 0 0 ABS 0
__Hbank3 0 0 ABS 0
__Lbank3 0 0 ABS 0
___latbits 2 0 ABS 0
__Hpowerup 0 0 CODE 0
__Lpowerup 0 0 CODE 0
__ptext1 49D 0 CODE 0
__ptext2 37F 0 CODE 0
__ptext3 3FF 0 CODE 0
__ptext4 540 0 CODE 0
_LCD_putrs 37F 0 CODE 0
__ptext5 3A4 0 CODE 0
__ptext6 5F6 0 CODE 0
__Hclrtext 0 0 ABS 0
__Lclrtext 0 0 ABS 0
__end_of__initialization 7FC 0 CODE 0
__size_of_LCD_Out 0 0 ABS 0
main@lcd 25 0 BANK0 1
__Hstack 0 0 STACK 2
__Lstack 0 0 STACK 2
__Hspace_0 800 0 ABS 0
__Lspace_0 0 0 ABS 0
__Hspace_1 7E 0 ABS 0
_LCD_Out 5F6 0 CODE 0
__Lspace_1 0 0 ABS 0
__Hspace_2 0 0 ABS 0
__Lspace_2 0 0 ABS 0
__Hcinit 800 0 CODE 0
__Lcinit 7D9 0 CODE 0
__Hspace_3 0 0 ABS 0
__Lspace_3 0 0 ABS 0
__size_of_main 0 0 ABS 0
__Hspace_4 400F 0 ABS 0
__Lspace_4 0 0 ABS 0
__end_of_text 1A 0 STRING 0
__HidataBANK0 0 0 ABS 0
__LidataBANK0 0 0 ABS 0
LCD_Init@cmd 7D 0 COMMON 1
__pidataBANK0 37A 0 CODE 0
__size_of_LCD_Init 0 0 ABS 0
__HbssBANK0 0 0 ABS 0
__LbssBANK0 0 0 ABS 0
__pbssBANK0 2E 0 BANK0 1
__size_of_leer_teclado 0 0 ABS 0
__end_of_LCD_putc 49D 0 CODE 0
__end_of_LCD_putrs 3A4 0 CODE 0
__Hend_init 3 0 CODE 0
__Lend_init 0 0 CODE 0
__Hreset_vec 0 0 CODE 0
__Lreset_vec 0 0 CODE 0
intlevel0 0 0 ENTRY 0
intlevel1 0 0 ENTRY 0
__end_of_LCD_Write 3FF 0 CODE 0
intlevel2 0 0 ENTRY 0
intlevel3 0 0 ENTRY 0
intlevel4 0 0 ENTRY 0
intlevel5 0 0 ENTRY 0
__size_of_LCD_putc 0 0 ABS 0
__size_of_LCD_putrs 0 0 ABS 0
__HcstackCOMMON 0 0 ABS 0
__LcstackCOMMON 0 0 ABS 0
__pcstackCOMMON 70 0 COMMON 1
start_initialization 7D9 0 CODE 0
__Hmaintext 0 0 ABS 0
__Lmaintext 0 0 ABS 0
__pmaintext 6C0 0 CODE 0
LCD_Write@c 77 0 COMMON 1
__initialization 7D9 0 CODE 0
__stringbase 8 0 STRING 0
LCD_putc@c 77 0 COMMON 1
LCD_Out@c 73 0 COMMON 1
LCD_putrs@a 7A 0 COMMON 1
%segments
reset_vec 0 5 CODE 0 0
cinit FB2 FFF CODE FB2 0
cstackCOMMON 70 7D COMMON 70 1
cstackBANK0 20 37 BANK0 20 1
maintext D80 FB1 CODE D80 0
text6 BEC D7F CODE BEC 0
text4 A80 BEB CODE A80 0
text1 93A A7F CODE 93A 0
text3 7FE 939 CODE 7FE 0
text5 748 7FD CODE 748 0
text2 6FE 747 CODE 6FE 0
strings 6 45 STRING 6 0
idataBANK0 6F4 6FD CODE 6F4 0
%locals
dist/default/production\Teclado_LCD.X.production.o
C:\Users\diego\AppData\Local\Temp\xcAs9tk.s
686 7D9 0 CODE 0
689 7D9 0 CODE 0
709 7D9 0 CODE 0
710 7DE 0 CODE 0
711 7DF 0 CODE 0
712 7E4 0 CODE 0
713 7E5 0 CODE 0
714 7EA 0 CODE 0
715 7EB 0 CODE 0
716 7F0 0 CODE 0
717 7F1 0 CODE 0
718 7F6 0 CODE 0
722 7F7 0 CODE 0
723 7F8 0 CODE 0
724 7F9 0 CODE 0
725 7FA 0 CODE 0
726 7FB 0 CODE 0
732 7FC 0 CODE 0
734 7FC 0 CODE 0
735 7FD 0 CODE 0
main.c
74 6C0 0 CODE 0
76 6C0 0 CODE 0
77 6C0 0 CODE 0
79 6C4 0 CODE 0
80 6C7 0 CODE 0
81 6CA 0 CODE 0
82 6CE 0 CODE 0
83 6D0 0 CODE 0
84 6D2 0 CODE 0
86 6D3 0 CODE 0
88 6E6 0 CODE 0
90 6FB 0 CODE 0
94 707 0 CODE 0
96 712 0 CODE 0
99 713 0 CODE 0
100 717 0 CODE 0
102 718 0 CODE 0
103 71C 0 CODE 0
105 71D 0 CODE 0
106 721 0 CODE 0
108 722 0 CODE 0
109 726 0 CODE 0
111 727 0 CODE 0
112 72B 0 CODE 0
114 72C 0 CODE 0
115 730 0 CODE 0
117 731 0 CODE 0
118 735 0 CODE 0
120 736 0 CODE 0
121 73A 0 CODE 0
123 73B 0 CODE 0
124 73F 0 CODE 0
126 740 0 CODE 0
127 744 0 CODE 0
129 745 0 CODE 0
130 749 0 CODE 0
132 74A 0 CODE 0
133 74E 0 CODE 0
135 74F 0 CODE 0
136 753 0 CODE 0
138 754 0 CODE 0
139 758 0 CODE 0
141 759 0 CODE 0
142 75D 0 CODE 0
144 75E 0 CODE 0
145 762 0 CODE 0
146 763 0 CODE 0
146 765 0 CODE 0
146 76A 0 CODE 0
146 76D 0 CODE 0
146 770 0 CODE 0
146 773 0 CODE 0
146 776 0 CODE 0
146 779 0 CODE 0
146 77C 0 CODE 0
146 77F 0 CODE 0
146 782 0 CODE 0
146 785 0 CODE 0
146 788 0 CODE 0
146 78B 0 CODE 0
146 78E 0 CODE 0
146 791 0 CODE 0
146 794 0 CODE 0
146 797 0 CODE 0
148 79A 0 CODE 0
149 7A6 0 CODE 0
151 7AC 0 CODE 0
152 7B8 0 CODE 0
153 7C7 0 CODE 0
26 49D 0 CODE 0
28 49D 0 CODE 0
30 4A5 0 CODE 0
31 4A7 0 CODE 0
32 4AB 0 CODE 0
33 4B0 0 CODE 0
34 4B4 0 CODE 0
35 4B9 0 CODE 0
36 4BD 0 CODE 0
37 4C2 0 CODE 0
38 4C6 0 CODE 0
40 4CB 0 CODE 0
41 4CD 0 CODE 0
42 4D1 0 CODE 0
43 4D6 0 CODE 0
44 4DA 0 CODE 0
45 4DF 0 CODE 0
46 4E3 0 CODE 0
47 4E8 0 CODE 0
48 4EC 0 CODE 0
50 4F1 0 CODE 0
51 4F3 0 CODE 0
52 4F7 0 CODE 0
53 4FC 0 CODE 0
54 500 0 CODE 0
55 505 0 CODE 0
56 509 0 CODE 0
57 50E 0 CODE 0
58 512 0 CODE 0
60 517 0 CODE 0
61 519 0 CODE 0
62 51D 0 CODE 0
63 522 0 CODE 0
64 526 0 CODE 0
65 52B 0 CODE 0
66 52F 0 CODE 0
67 534 0 CODE 0
68 538 0 CODE 0
71 53D 0 CODE 0
72 53F 0 CODE 0
lcd.c
144 37F 0 CODE 0
146 380 0 CODE 0
147 383 0 CODE 0
148 390 0 CODE 0
148 392 0 CODE 0
148 39F 0 CODE 0
150 3A3 0 CODE 0
119 3FF 0 CODE 0
121 400 0 CODE 0
121 408 0 CODE 0
121 40B 0 CODE 0
122 416 0 CODE 0
122 419 0 CODE 0
122 41C 0 CODE 0
124 425 0 CODE 0
124 430 0 CODE 0
124 433 0 CODE 0
125 43E 0 CODE 0
126 443 0 CODE 0
126 44E 0 CODE 0
126 451 0 CODE 0
128 45D 0 CODE 0
130 464 0 CODE 0
130 46F 0 CODE 0
130 472 0 CODE 0
131 47D 0 CODE 0
132 482 0 CODE 0
132 48D 0 CODE 0
132 490 0 CODE 0
134 49C 0 CODE 0
61 540 0 CODE 0
63 540 0 CODE 0
72 551 0 CODE 0
72 555 0 CODE 0
72 559 0 CODE 0
73 55D 0 CODE 0
74 560 0 CODE 0
75 561 0 CODE 0
75 563 0 CODE 0
75 567 0 CODE 0
76 56B 0 CODE 0
77 56E 0 CODE 0
78 56F 0 CODE 0
78 571 0 CODE 0
78 575 0 CODE 0
79 579 0 CODE 0
94 57C 0 CODE 0
97 586 0 CODE 0
98 58C 0 CODE 0
99 597 0 CODE 0
100 59D 0 CODE 0
101 5A8 0 CODE 0
104 5AE 0 CODE 0
107 5B4 0 CODE 0
110 5C0 0 CODE 0
112 5CC 0 CODE 0
112 5D6 0 CODE 0
112 5D9 0 CODE 0
114 5E9 0 CODE 0
117 5F5 0 CODE 0
50 3A4 0 CODE 0
52 3A5 0 CODE 0
52 3AD 0 CODE 0
52 3B0 0 CODE 0
53 3BC 0 CODE 0
55 3C2 0 CODE 0
55 3CD 0 CODE 0
55 3D0 0 CODE 0
56 3DB 0 CODE 0
57 3E4 0 CODE 0
57 3EF 0 CODE 0
57 3F2 0 CODE 0
59 3FE 0 CODE 0
18 5F6 0 CODE 0
20 5F7 0 CODE 0
21 5FB 0 CODE 0
21 603 0 CODE 0
21 606 0 CODE 0
22 611 0 CODE 0
24 612 0 CODE 0
24 61A 0 CODE 0
24 61D 0 CODE 0
27 629 0 CODE 0
28 62D 0 CODE 0
28 636 0 CODE 0
28 639 0 CODE 0
29 644 0 CODE 0
31 645 0 CODE 0
31 64E 0 CODE 0
31 651 0 CODE 0
34 65D 0 CODE 0
35 661 0 CODE 0
35 667 0 CODE 0
35 66A 0 CODE 0
36 675 0 CODE 0
38 676 0 CODE 0
38 67C 0 CODE 0
38 67F 0 CODE 0
41 68B 0 CODE 0
42 68F 0 CODE 0
42 698 0 CODE 0
42 69B 0 CODE 0
43 6A6 0 CODE 0
45 6A7 0 CODE 0
45 6B0 0 CODE 0
45 6B3 0 CODE 0
48 6BF 0 CODE 0
